{
	"info": {
		"_postman_id": "7017fdcc-a7bc-4c47-b109-0c739ffc7993",
		"name": "Todo",
		"schema": "https://schema.getpostman.com/json/collection/v2.1.0/collection.json"
	},
	"item": [
		{
			"name": "Create project",
			"request": {
				"method": "POST",
				"header": [
					{
						"key": "Accept",
						"value": "application/json",
						"type": "text"
					}
				],
				"body": {
					"mode": "raw",
					"raw": "{\r\n    \"name\": \"Test\"\r\n}",
					"options": {
						"raw": {
							"language": "json"
						}
					}
				},
				"url": {
					"raw": "https://todo.loc/api/project",
					"protocol": "https",
					"host": [
						"todo",
						"loc"
					],
					"path": [
						"api",
						"project"
					]
				}
			},
			"response": []
		},
		{
			"name": "Projects",
			"request": {
				"method": "GET",
				"header": [
					{
						"key": "Accept",
						"value": "application/json",
						"type": "text"
					}
				],
				"url": {
					"raw": "https://todo.loc/api/projects",
					"protocol": "https",
					"host": [
						"todo",
						"loc"
					],
					"path": [
						"api",
						"projects"
					]
				}
			},
			"response": []
		},
		{
			"name": "Create User",
			"request": {
				"method": "POST",
				"header": [
					{
						"key": "Accept",
						"value": "application/json",
						"type": "text"
					}
				],
				"body": {
					"mode": "raw",
					"raw": "{\r\n    \"name\": \"Test Test\",\r\n    \"email\": \"test@test.com\"\r\n}",
					"options": {
						"raw": {
							"language": "json"
						}
					}
				},
				"url": {
					"raw": "https://todo.loc/api/user",
					"protocol": "https",
					"host": [
						"todo",
						"loc"
					],
					"path": [
						"api",
						"user"
					]
				}
			},
			"response": []
		},
		{
			"name": "Create Todo",
			"protocolProfileBehavior": {
				"disabledSystemHeaders": {}
			},
			"request": {
				"method": "POST",
				"header": [
					{
						"key": "Accept",
						"value": "application/json",
						"type": "text"
					}
				],
				"body": {
					"mode": "raw",
					"raw": "{\r\n    \"project_id\": 1,\r\n    \"user_id\": 1,\r\n    \"description\": \"Test2\",\r\n    \"views\": 43\r\n}",
					"options": {
						"raw": {
							"language": "json"
						}
					}
				},
				"url": {
					"raw": "https://todo.loc/api/todo",
					"protocol": "https",
					"host": [
						"todo",
						"loc"
					],
					"path": [
						"api",
						"todo"
					]
				}
			},
			"response": []
		},
		{
			"name": "Delete Todo",
			"request": {
				"method": "DELETE",
				"header": [
					{
						"key": "Accept",
						"value": "application/json",
						"type": "text"
					}
				],
				"url": {
					"raw": "https://todo.loc/api/todo/1",
					"protocol": "https",
					"host": [
						"todo",
						"loc"
					],
					"path": [
						"api",
						"todo",
						"1"
					]
				}
			},
			"response": []
		},
		{
			"name": "Mark Todo Done",
			"request": {
				"method": "POST",
				"header": [
					{
						"key": "Accept",
						"value": "application/json",
						"type": "text"
					}
				],
				"url": {
					"raw": "https://todo.loc/api/todo/done/2",
					"protocol": "https",
					"host": [
						"todo",
						"loc"
					],
					"path": [
						"api",
						"todo",
						"done",
						"2"
					]
				}
			},
			"response": []
		},
		{
			"name": "View Todo",
			"request": {
				"method": "GET",
				"header": [
					{
						"key": "Accept",
						"value": "application/json",
						"type": "text"
					}
				],
				"url": {
					"raw": "https://todo.loc/api/todo/2",
					"protocol": "https",
					"host": [
						"todo",
						"loc"
					],
					"path": [
						"api",
						"todo",
						"2"
					]
				}
			},
			"response": []
		},
		{
			"name": "List Todos",
			"request": {
				"method": "GET",
				"header": [
					{
						"key": "Accept",
						"value": "application/json",
						"type": "text"
					}
				],
				"url": {
					"raw": "https://todo.loc/api/todos",
					"protocol": "https",
					"host": [
						"todo",
						"loc"
					],
					"path": [
						"api",
						"todos"
					]
				}
			},
			"response": []
		}
	]
}